{"properties": [
  {
    "name": "sp",
    "type": "java.lang.String",
    "description": "A description for 'sp'"
  },
  {
    "name": "spe",
    "type": "java.lang.String",
    "description": "A description for 'spe'"
  },
  {
    "name": "speakio.password.client",
    "type": "java.lang.String",
    "description": "A description for 'speakio.password.client'"
  }
]}